       __
      / _\__
      | `___\
      |  |
      |  |
      /  \
    _/    \_
   /        \
   \________/
  /¯        ¯\
  \__________/
 /¯          ¯\
 \____________/
/¯            ¯\
\______________/
